<?xml version="1.0" encoding="UTF-8" standalone="no"?>
<svg
   xmlns:dc="http://purl.org/dc/elements/1.1/"
   xmlns:cc="http://creativecommons.org/ns#"
   xmlns:rdf="http://www.w3.org/1999/02/22-rdf-syntax-ns#"
   xmlns:svg="http://www.w3.org/2000/svg"
   xmlns="http://www.w3.org/2000/svg"
   xmlns:sodipodi="http://sodipodi.sourceforge.net/DTD/sodipodi-0.dtd"
   xmlns:inkscape="http://www.inkscape.org/namespaces/inkscape"
   width="4.2088013in"
   height="5.5352721in"
   viewBox="0 0 106.90355 140.59592"
   version="1.1"
   id="svg1210"
   inkscape:version="0.92.3 (2405546, 2018-03-11)"
   sodipodi:docname="logo_no_background.svg">
  <defs
     id="defs1204" />
  <sodipodi:namedview
     fit-margin-bottom="0"
     fit-margin-right="0"
     fit-margin-left="0"
     fit-margin-top="0"
     id="base"
     pagecolor="#ffffff"
     bordercolor="#666666"
     borderopacity="1.0"
     inkscape:pageopacity="0.0"
     inkscape:pageshadow="2"
     inkscape:zoom="0.49497475"
     inkscape:cx="331.23449"
     inkscape:cy="-47.323177"
     inkscape:document-units="mm"
     inkscape:current-layer="layer1"
     inkscape:document-rotation="0"
     showgrid="false"
     inkscape:window-width="1916"
     inkscape:window-height="1036"
     inkscape:window-x="0"
     inkscape:window-y="42"
     inkscape:window-maximized="0"
     units="in" />
  <metadata
     id="metadata1207">
    <rdf:RDF>
      <cc:Work
         rdf:about="">
        <dc:format>image/svg+xml</dc:format>
        <dc:type
           rdf:resource="http://purl.org/dc/dcmitype/StillImage" />
        <dc:title></dc:title>
      </cc:Work>
    </rdf:RDF>
  </metadata>
  <g
     transform="translate(317.64601,41.226421)"
     inkscape:label="Layer 1"
     inkscape:groupmode="layer"
     id="layer1">
    <path
       style="fill:none;stroke:#ffffff;stroke-width:8.83000088;stroke-linecap:round;stroke-miterlimit:4;stroke-dasharray:none;stroke-opacity:1"
       id="circle1105-2-7-6-7"
       sodipodi:type="arc"
       sodipodi:cx="-265.88342"
       sodipodi:cy="47.607006"
       sodipodi:rx="47.344841"
       sodipodi:ry="47.344841"
       sodipodi:start="0.37524579"
       sodipodi:end="4.7472956"
       d="m -221.83295,64.958948 a 47.344841,47.344841 0 0 1 -56.30422,28.379663 47.344841,47.344841 0 0 1 -34.57105,-52.729619 47.344841,47.344841 0 0 1 48.47711,-40.31798568"
       sodipodi:open="true" />
    <path
       style="fill:none;stroke:#ffffff;stroke-width:8.83000088;stroke-linecap:round;stroke-miterlimit:4;stroke-dasharray:none;stroke-opacity:1"
       id="circle1105-3-6-5"
       sodipodi:type="arc"
       sodipodi:cx="-265.88342"
       sodipodi:cy="47.607006"
       sodipodi:rx="32.952248"
       sodipodi:ry="32.952248"
       sodipodi:start="0.38048178"
       sodipodi:end="4.7926741"
       d="m -235.28773,59.844411 a 32.952248,32.952248 0 0 1 -39.71541,19.427739 32.952248,32.952248 0 0 1 -23.29807,-37.575939 32.952248,32.952248 0 0 1 35.06052,-26.935309"
       sodipodi:open="true" />
    <circle
       cx="-265.88342"
       cy="47.607006"
       id="circle4-6-6-5"
       style="fill:none;stroke:#ffffff;stroke-width:8.82997227;stroke-miterlimit:4;stroke-dasharray:none;stroke-opacity:1"
       r="19.011244" />
    <path
       style="fill:none;stroke:#ffffff;stroke-width:8.82997227;stroke-linecap:round;stroke-linejoin:miter;stroke-miterlimit:4;stroke-dasharray:none;stroke-opacity:1"
       d="M -246.87222,47.111187 V -36.748554"
       id="path828-2-1-6"
       inkscape:connector-curvature="0" />
    <path
       style="fill:none;stroke:#ffffff;stroke-width:8.82997227;stroke-linecap:round;stroke-linejoin:miter;stroke-miterlimit:4;stroke-dasharray:none;stroke-opacity:1"
       d="M -215.20204,-5.0783732 -246.87222,-36.748554"
       id="path828-2-2-7-2"
       inkscape:connector-curvature="0" />
  </g>
</svg>
